 /* example.i */
 %module example
 %{
 /* Put header files here or function declarations like below */
 extern void serial(char opcion,int size=200,int timeout=500);
 %}
 
 extern void serial(char opcion,int size=200,int timeout=500);

